thinpad_top.vcd
$date
	Sat Nov 30 23:12:15 2019
$end
$version
	Icarus Verilog
$end
$timescale
	1ps
$end
$scope module tb $end
$var wire 32 ! IF_Instruction [31:0] $end
$var wire 32 " MEM_Data2 [31:0] $end
$var wire 32 # base_ram_data [31:0] $end
$var wire 1 $ clk $end
$var wire 32 % ext_ram_data [31:0] $end
$var wire 1 & flash_byte_n $end
$var wire 1 ' reset $end
$var wire 1 ( rxd $end
$var wire 1 ) uart_wrn $end
$var wire 1 * uart_tsre $end
$var wire 1 + uart_tbre $end
$var wire 1 , uart_rdn $end
$var wire 1 - uart_dataready $end
$var wire 1 . ext_ram_we_n $end
$var wire 1 / ext_ram_oe_n $end
$var wire 1 0 ext_ram_ce_n $end
$var wire 4 1 ext_ram_be_n [3:0] $end
$var wire 20 2 ext_ram_addr [19:0] $end
$var wire 1 3 clk_50M $end
$var wire 1 4 clk_11M0592 $end
$var wire 1 5 ce $end
$var wire 1 6 base_ram_we_n $end
$var wire 1 7 base_ram_oe_n $end
$var wire 1 8 base_ram_ce_n $end
$var wire 4 9 base_ram_be_n [3:0] $end
$var wire 20 : base_ram_addr [19:0] $end
$var wire 1 ; Stall $end
$var wire 32 < PC [31:0] $end
$var wire 32 = MEM_ReadData [31:0] $end
$var wire 1 > MEM_MemWrite $end
$var wire 1 ? MEM_MemRead $end
$var wire 32 @ MEM_Instruction [31:0] $end
$var wire 32 A MEM_ALU_out [31:0] $end
$var reg 32 B IF_Instruction_reg [31:0] $end
$var reg 32 C MEM_ALU_out_reg [31:0] $end
$var reg 32 D MEM_Data2_reg [31:0] $end
$var reg 32 E MEM_Instruction_reg [31:0] $end
$var reg 1 ? MEM_MemRead_reg $end
$var reg 1 > MEM_MemWrite_reg $end
$var reg 32 F PC_reg [31:0] $end
$var reg 1 ; Stall_reg $end
$var reg 1 5 ce_reg $end
$var reg 1 G clk_reg $end
$var reg 1 H clock_btn $end
$var reg 32 I dip_sw [31:0] $end
$var reg 1 J reset_btn $end
$var reg 1 K reset_reg $end
$var reg 4 L touch_btn [3:0] $end
$scope module base1 $end
$var wire 16 M DataIO [15:0] $end
$var wire 1 N LB_n $end
$var wire 1 O UB_n $end
$var wire 1 6 WE_n $end
$var wire 1 7 OE_n $end
$var wire 1 8 CE_n $end
$var wire 20 P Address [19:0] $end
$var reg 20 Q Address_read1 [19:0] $end
$var reg 20 R Address_read2 [19:0] $end
$var reg 20 S Address_write1 [19:0] $end
$var reg 20 T Address_write2 [19:0] $end
$var reg 64 U LB_n_start_time [63:0] $end
$var reg 64 V UB_n_start_time [63:0] $end
$var reg 1 W WE_dly $end
$var reg 1 X activate_cebar $end
$var reg 1 Y activate_webar $end
$var reg 1 Z activate_wecebar $end
$var reg 16 [ dataIO1 [15:0] $end
$var reg 16 \ data_read [15:0] $end
$var reg 1 ] initiate_read1 $end
$var reg 1 ^ initiate_read2 $end
$var reg 1 _ initiate_write1 $end
$var reg 1 ` initiate_write2 $end
$var reg 1 a initiate_write3 $end
$var reg 64 b read_CE_n_start_time [63:0] $end
$var reg 64 c read_OE_n_start_time [63:0] $end
$var reg 64 d read_WE_n_start_time [63:0] $end
$var reg 64 e read_address_add [63:0] $end
$var reg 64 f read_address_oe [63:0] $end
$var reg 64 g read_address_time [63:0] $end
$var reg 64 h taa [63:0] $end
$var reg 64 i tace [63:0] $end
$var reg 64 j tah [63:0] $end
$var reg 64 k tas [63:0] $end
$var reg 64 l taw [63:0] $end
$var reg 64 m tba [63:0] $end
$var reg 64 n tbhz [63:0] $end
$var reg 64 o tblz [63:0] $end
$var reg 64 p tbw [63:0] $end
$var reg 64 q tchz [63:0] $end
$var reg 64 r tclz [63:0] $end
$var reg 64 s tcw [63:0] $end
$var reg 64 t tdh [63:0] $end
$var reg 64 u tdw [63:0] $end
$var reg 64 v temptaa [63:0] $end
$var reg 64 w temptoe [63:0] $end
$var reg 64 x toe [63:0] $end
$var reg 64 y toh [63:0] $end
$var reg 64 z tohz [63:0] $end
$var reg 64 { tolz [63:0] $end
$var reg 64 | tow [63:0] $end
$var reg 64 } tpd [63:0] $end
$var reg 64 ~ tpu [63:0] $end
$var reg 64 !" trc [63:0] $end
$var reg 64 "" twc [63:0] $end
$var reg 64 #" twp1 [63:0] $end
$var reg 64 $" twp2 [63:0] $end
$var reg 64 %" twr [63:0] $end
$var reg 64 &" twz [63:0] $end
$var reg 64 '" write_CE_n_start_time [63:0] $end
$var reg 64 (" write_CE_n_start_time1 [63:0] $end
$var reg 64 )" write_WE_n_start_time [63:0] $end
$var reg 64 *" write_WE_n_start_time1 [63:0] $end
$var reg 64 +" write_address1_time [63:0] $end
$var reg 64 ," write_address_time [63:0] $end
$var reg 64 -" write_data1_time [63:0] $end
$var reg 64 ." write_data_time [63:0] $end
$upscope $end
$scope module base2 $end
$var wire 16 /" DataIO [15:0] $end
$var wire 1 0" LB_n $end
$var wire 1 1" UB_n $end
$var wire 1 6 WE_n $end
$var wire 1 7 OE_n $end
$var wire 1 8 CE_n $end
$var wire 20 2" Address [19:0] $end
$var reg 20 3" Address_read1 [19:0] $end
$var reg 20 4" Address_read2 [19:0] $end
$var reg 20 5" Address_write1 [19:0] $end
$var reg 20 6" Address_write2 [19:0] $end
$var reg 64 7" LB_n_start_time [63:0] $end
$var reg 64 8" UB_n_start_time [63:0] $end
$var reg 1 9" WE_dly $end
$var reg 1 :" activate_cebar $end
$var reg 1 ;" activate_webar $end
$var reg 1 <" activate_wecebar $end
$var reg 16 =" dataIO1 [15:0] $end
$var reg 16 >" data_read [15:0] $end
$var reg 1 ?" initiate_read1 $end
$var reg 1 @" initiate_read2 $end
$var reg 1 A" initiate_write1 $end
$var reg 1 B" initiate_write2 $end
$var reg 1 C" initiate_write3 $end
$var reg 64 D" read_CE_n_start_time [63:0] $end
$var reg 64 E" read_OE_n_start_time [63:0] $end
$var reg 64 F" read_WE_n_start_time [63:0] $end
$var reg 64 G" read_address_add [63:0] $end
$var reg 64 H" read_address_oe [63:0] $end
$var reg 64 I" read_address_time [63:0] $end
$var reg 64 J" taa [63:0] $end
$var reg 64 K" tace [63:0] $end
$var reg 64 L" tah [63:0] $end
$var reg 64 M" tas [63:0] $end
$var reg 64 N" taw [63:0] $end
$var reg 64 O" tba [63:0] $end
$var reg 64 P" tbhz [63:0] $end
$var reg 64 Q" tblz [63:0] $end
$var reg 64 R" tbw [63:0] $end
$var reg 64 S" tchz [63:0] $end
$var reg 64 T" tclz [63:0] $end
$var reg 64 U" tcw [63:0] $end
$var reg 64 V" tdh [63:0] $end
$var reg 64 W" tdw [63:0] $end
$var reg 64 X" temptaa [63:0] $end
$var reg 64 Y" temptoe [63:0] $end
$var reg 64 Z" toe [63:0] $end
$var reg 64 [" toh [63:0] $end
$var reg 64 \" tohz [63:0] $end
$var reg 64 ]" tolz [63:0] $end
$var reg 64 ^" tow [63:0] $end
$var reg 64 _" tpd [63:0] $end
$var reg 64 `" tpu [63:0] $end
$var reg 64 a" trc [63:0] $end
$var reg 64 b" twc [63:0] $end
$var reg 64 c" twp1 [63:0] $end
$var reg 64 d" twp2 [63:0] $end
$var reg 64 e" twr [63:0] $end
$var reg 64 f" twz [63:0] $end
$var reg 64 g" write_CE_n_start_time [63:0] $end
$var reg 64 h" write_CE_n_start_time1 [63:0] $end
$var reg 64 i" write_WE_n_start_time [63:0] $end
$var reg 64 j" write_WE_n_start_time1 [63:0] $end
$var reg 64 k" write_address1_time [63:0] $end
$var reg 64 l" write_address_time [63:0] $end
$var reg 64 m" write_data1_time [63:0] $end
$var reg 64 n" write_data_time [63:0] $end
$upscope $end
$scope module cpld $end
$var wire 1 o" clk_out2 $end
$var wire 8 p" data [7:0] $end
$var wire 1 ) uart_wrn $end
$var wire 1 q" uart_rx_flag $end
$var wire 1 , uart_rdn $end
$var wire 1 r" tx_en $end
$var wire 1 4 clk_uart $end
$var reg 8 s" TxD_data [7:0] $end
$var reg 8 t" TxD_data0 [7:0] $end
$var reg 8 u" TxD_data1 [7:0] $end
$var reg 8 v" TxD_data_sync [7:0] $end
$var reg 1 w" bus_analyze_clk $end
$var reg 1 x" bus_analyze_clk_rst_n $end
$var reg 1 y" clk_out2_rst_n $end
$var reg 3 z" cpld_emu_rdn_sync [2:0] $end
$var reg 3 {" cpld_emu_wrn_sync [2:0] $end
$var reg 1 |" rx_ack $end
$var reg 1 - uart_dataready $end
$var reg 8 }" uart_rx_data [7:0] $end
$var reg 1 + uart_tbre $end
$var reg 1 * uart_tsre $end
$var reg 1 ~" wrn_rise $end
$scope module rx_flag $end
$var wire 1 |" FlagIn_clkA $end
$var wire 1 q" FlagOut_clkB $end
$var wire 1 x" a_rst_n $end
$var wire 1 y" b_rst_n $end
$var wire 1 o" clkA $end
$var wire 1 w" clkB $end
$var reg 1 !# FlagToggle_clkA $end
$var reg 3 "# SyncA_clkB [2:0] $end
$upscope $end
$scope module tx_flag $end
$var wire 1 ~" FlagIn_clkA $end
$var wire 1 r" FlagOut_clkB $end
$var wire 1 x" a_rst_n $end
$var wire 1 y" b_rst_n $end
$var wire 1 w" clkA $end
$var wire 1 o" clkB $end
$var reg 1 ## FlagToggle_clkA $end
$var reg 3 $# SyncA_clkB [2:0] $end
$upscope $end
$scope begin proc_Tx $end
$upscope $end
$scope begin proc_tbre $end
$upscope $end
$scope task pc_send_byte $end
$var reg 8 %# arg [7:0] $end
$upscope $end
$upscope $end
$scope module ext1 $end
$var wire 16 &# DataIO [15:0] $end
$var wire 1 '# LB_n $end
$var wire 1 (# UB_n $end
$var wire 1 . WE_n $end
$var wire 1 / OE_n $end
$var wire 1 0 CE_n $end
$var wire 20 )# Address [19:0] $end
$var reg 20 *# Address_read1 [19:0] $end
$var reg 20 +# Address_read2 [19:0] $end
$var reg 20 ,# Address_write1 [19:0] $end
$var reg 20 -# Address_write2 [19:0] $end
$var reg 64 .# LB_n_start_time [63:0] $end
$var reg 64 /# UB_n_start_time [63:0] $end
$var reg 1 0# WE_dly $end
$var reg 1 1# activate_cebar $end
$var reg 1 2# activate_webar $end
$var reg 1 3# activate_wecebar $end
$var reg 16 4# dataIO1 [15:0] $end
$var reg 16 5# data_read [15:0] $end
$var reg 1 6# initiate_read1 $end
$var reg 1 7# initiate_read2 $end
$var reg 1 8# initiate_write1 $end
$var reg 1 9# initiate_write2 $end
$var reg 1 :# initiate_write3 $end
$var reg 64 ;# read_CE_n_start_time [63:0] $end
$var reg 64 <# read_OE_n_start_time [63:0] $end
$var reg 64 =# read_WE_n_start_time [63:0] $end
$var reg 64 ># read_address_add [63:0] $end
$var reg 64 ?# read_address_oe [63:0] $end
$var reg 64 @# read_address_time [63:0] $end
$var reg 64 A# taa [63:0] $end
$var reg 64 B# tace [63:0] $end
$var reg 64 C# tah [63:0] $end
$var reg 64 D# tas [63:0] $end
$var reg 64 E# taw [63:0] $end
$var reg 64 F# tba [63:0] $end
$var reg 64 G# tbhz [63:0] $end
$var reg 64 H# tblz [63:0] $end
$var reg 64 I# tbw [63:0] $end
$var reg 64 J# tchz [63:0] $end
$var reg 64 K# tclz [63:0] $end
$var reg 64 L# tcw [63:0] $end
$var reg 64 M# tdh [63:0] $end
$var reg 64 N# tdw [63:0] $end
$var reg 64 O# temptaa [63:0] $end
$var reg 64 P# temptoe [63:0] $end
$var reg 64 Q# toe [63:0] $end
$var reg 64 R# toh [63:0] $end
$var reg 64 S# tohz [63:0] $end
$var reg 64 T# tolz [63:0] $end
$var reg 64 U# tow [63:0] $end
$var reg 64 V# tpd [63:0] $end
$var reg 64 W# tpu [63:0] $end
$var reg 64 X# trc [63:0] $end
$var reg 64 Y# twc [63:0] $end
$var reg 64 Z# twp1 [63:0] $end
$var reg 64 [# twp2 [63:0] $end
$var reg 64 \# twr [63:0] $end
$var reg 64 ]# twz [63:0] $end
$var reg 64 ^# write_CE_n_start_time [63:0] $end
$var reg 64 _# write_CE_n_start_time1 [63:0] $end
$var reg 64 `# write_WE_n_start_time [63:0] $end
$var reg 64 a# write_WE_n_start_time1 [63:0] $end
$var reg 64 b# write_address1_time [63:0] $end
$var reg 64 c# write_address_time [63:0] $end
$var reg 64 d# write_data1_time [63:0] $end
$var reg 64 e# write_data_time [63:0] $end
$upscope $end
$scope module ext2 $end
$var wire 16 f# DataIO [15:0] $end
$var wire 1 g# LB_n $end
$var wire 1 h# UB_n $end
$var wire 1 . WE_n $end
$var wire 1 / OE_n $end
$var wire 1 0 CE_n $end
$var wire 20 i# Address [19:0] $end
$var reg 20 j# Address_read1 [19:0] $end
$var reg 20 k# Address_read2 [19:0] $end
$var reg 20 l# Address_write1 [19:0] $end
$var reg 20 m# Address_write2 [19:0] $end
$var reg 64 n# LB_n_start_time [63:0] $end
$var reg 64 o# UB_n_start_time [63:0] $end
$var reg 1 p# WE_dly $end
$var reg 1 q# activate_cebar $end
$var reg 1 r# activate_webar $end
$var reg 1 s# activate_wecebar $end
$var reg 16 t# dataIO1 [15:0] $end
$var reg 16 u# data_read [15:0] $end
$var reg 1 v# initiate_read1 $end
$var reg 1 w# initiate_read2 $end
$var reg 1 x# initiate_write1 $end
$var reg 1 y# initiate_write2 $end
$var reg 1 z# initiate_write3 $end
$var reg 64 {# read_CE_n_start_time [63:0] $end
$var reg 64 |# read_OE_n_start_time [63:0] $end
$var reg 64 }# read_WE_n_start_time [63:0] $end
$var reg 64 ~# read_address_add [63:0] $end
$var reg 64 !$ read_address_oe [63:0] $end
$var reg 64 "$ read_address_time [63:0] $end
$var reg 64 #$ taa [63:0] $end
$var reg 64 $$ tace [63:0] $end
$var reg 64 %$ tah [63:0] $end
$var reg 64 &$ tas [63:0] $end
$var reg 64 '$ taw [63:0] $end
$var reg 64 ($ tba [63:0] $end
$var reg 64 )$ tbhz [63:0] $end
$var reg 64 *$ tblz [63:0] $end
$var reg 64 +$ tbw [63:0] $end
$var reg 64 ,$ tchz [63:0] $end
$var reg 64 -$ tclz [63:0] $end
$var reg 64 .$ tcw [63:0] $end
$var reg 64 /$ tdh [63:0] $end
$var reg 64 0$ tdw [63:0] $end
$var reg 64 1$ temptaa [63:0] $end
$var reg 64 2$ temptoe [63:0] $end
$var reg 64 3$ toe [63:0] $end
$var reg 64 4$ toh [63:0] $end
$var reg 64 5$ tohz [63:0] $end
$var reg 64 6$ tolz [63:0] $end
$var reg 64 7$ tow [63:0] $end
$var reg 64 8$ tpd [63:0] $end
$var reg 64 9$ tpu [63:0] $end
$var reg 64 :$ trc [63:0] $end
$var reg 64 ;$ twc [63:0] $end
$var reg 64 <$ twp1 [63:0] $end
$var reg 64 =$ twp2 [63:0] $end
$var reg 64 >$ twr [63:0] $end
$var reg 64 ?$ twz [63:0] $end
$var reg 64 @$ write_CE_n_start_time [63:0] $end
$var reg 64 A$ write_CE_n_start_time1 [63:0] $end
$var reg 64 B$ write_WE_n_start_time [63:0] $end
$var reg 64 C$ write_WE_n_start_time1 [63:0] $end
$var reg 64 D$ write_address1_time [63:0] $end
$var reg 64 E$ write_address_time [63:0] $end
$var reg 64 F$ write_data1_time [63:0] $end
$var reg 64 G$ write_data_time [63:0] $end
$upscope $end
$scope module osc $end
$var reg 1 4 clk_11M0592 $end
$var reg 1 3 clk_50M $end
$upscope $end
$scope module ram $end
$var wire 6 H$ Op [5:0] $end
$var wire 32 I$ base_ram_data [31:0] $end
$var wire 1 G clk $end
$var wire 32 J$ ext_ram_data [31:0] $end
$var wire 32 K$ inst [31:0] $end
$var wire 32 L$ inst_addr [31:0] $end
$var wire 1 5 inst_ce $end
$var wire 32 M$ mem_addr [31:0] $end
$var wire 1 N$ mem_ce $end
$var wire 32 O$ mem_data_i [31:0] $end
$var wire 1 > mem_we $end
$var wire 1 ' rst $end
$var wire 1 ; stall $end
$var wire 1 - uart_dataready $end
$var wire 1 + uart_tbre $end
$var wire 1 * uart_tsre $end
$var wire 1 ) uart_wrn $end
$var wire 1 P$ uart_writable $end
$var wire 1 , uart_rdn $end
$var wire 32 Q$ read_from_ram_data [31:0] $end
$var wire 1 . ext_ram_we_n $end
$var wire 1 / ext_ram_oe_n $end
$var wire 1 0 ext_ram_ce_n $end
$var wire 4 R$ ext_ram_be_n [3:0] $end
$var wire 20 S$ ext_ram_addr [19:0] $end
$var wire 1 6 base_ram_we_n $end
$var wire 1 7 base_ram_oe_n $end
$var wire 1 8 base_ram_ce_n $end
$var wire 4 T$ base_ram_be_n [3:0] $end
$var wire 20 U$ base_ram_addr [19:0] $end
$var reg 1 V$ base_ext_sel $end
$var reg 4 W$ base_ram_be_n_reg [3:0] $end
$var reg 1 8 base_ram_ce_n_reg $end
$var reg 1 7 base_ram_oe_n_reg $end
$var reg 1 6 base_ram_we_n_reg $end
$var reg 4 X$ ext_ram_be_n_reg [3:0] $end
$var reg 1 0 ext_ram_ce_n_reg $end
$var reg 1 / ext_ram_oe_n_reg $end
$var reg 1 . ext_ram_we_n_reg $end
$var reg 32 Y$ inner_ram_data [31:0] $end
$var reg 32 Z$ inst_reg [31:0] $end
$var reg 32 [$ mem_data_o [31:0] $end
$var reg 1 , uart_rdn_reg $end
$var reg 1 \$ uart_wrn_reg $end
$var reg 1 ]$ write_flag $end
$upscope $end
$scope begin $ivl_for_loop0 $end
$var integer 32 ^$ i [31:0] $end
$upscope $end
$scope begin $ivl_for_loop1 $end
$var integer 32 _$ i [31:0] $end
$upscope $end
$scope begin $unm_blk_148 $end
$var integer 32 `$ n_File_ID [31:0] $end
$var integer 32 a$ n_Init_Size [31:0] $end
$scope begin $ivl_for_loop2 $end
$var integer 32 b$ i [31:0] $end
$upscope $end
$upscope $end
$scope begin $unm_blk_152 $end
$var integer 32 c$ n_File_ID [31:0] $end
$var integer 32 d$ n_Init_Size [31:0] $end
$scope begin $ivl_for_loop3 $end
$var integer 32 e$ i [31:0] $end
$upscope $end
$upscope $end
$upscope $end
$enddefinitions $end
#0
$dumpvars
b100 e$
b100 d$
b10000000000000000000000000000011 c$
b100000111001 b$
b100000111001 a$
b10000000000000000000000000000011 `$
b0 _$
b0 ^$
0]$
1\$
b0 [$
b0 Z$
bz Y$
b1111 X$
b1111 W$
1V$
bx U$
b1111 T$
bx S$
b1111 R$
bz Q$
1P$
bx O$
xN$
bx M$
bx L$
bx K$
bz J$
bz I$
bx H$
b0 G$
b0 F$
b0 E$
b0 D$
b0 C$
b0 B$
b0 A$
b0 @$
b101 ?$
b0 >$
b1010 =$
b111 <$
b1010 ;$
b1010 :$
b0 9$
b1010 8$
b11 7$
b0 6$
b101 5$
b11 4$
b100 3$
b100 2$
b1010 1$
b101 0$
b0 /$
b111 .$
b11 -$
b101 ,$
b111 +$
b0 *$
b101 )$
b101 ($
b111 '$
b0 &$
b0 %$
b1010 $$
b1010 #$
b0 "$
b0 !$
b0 ~#
b0 }#
b0 |#
b0 {#
0z#
0y#
0x#
0w#
0v#
bz u#
bx t#
0s#
0r#
0q#
1p#
b0 o#
b0 n#
bx m#
bx l#
bx k#
bx j#
bx i#
1h#
1g#
bz f#
b0 e#
b0 d#
b0 c#
b0 b#
b0 a#
b0 `#
b0 _#
b0 ^#
b101 ]#
b0 \#
b1010 [#
b111 Z#
b1010 Y#
b1010 X#
b0 W#
b1010 V#
b11 U#
b0 T#
b101 S#
b11 R#
b100 Q#
b100 P#
b1010 O#
b101 N#
b0 M#
b111 L#
b11 K#
b101 J#
b111 I#
b0 H#
b101 G#
b101 F#
b111 E#
b0 D#
b0 C#
b1010 B#
b1010 A#
b0 @#
b0 ?#
b0 >#
b0 =#
b0 <#
b0 ;#
0:#
09#
08#
07#
06#
bz 5#
bx 4#
03#
02#
01#
10#
b0 /#
b0 .#
bx -#
bx ,#
bx +#
bx *#
bx )#
1(#
1'#
bz &#
bx %#
bx $#
x##
bx "#
x!#
x~"
bx }"
0|"
bx {"
bx z"
0y"
0x"
0w"
bx v"
bx u"
bx t"
bx s"
xr"
xq"
bz p"
xo"
b0 n"
b0 m"
b0 l"
b0 k"
b0 j"
b0 i"
b0 h"
b0 g"
b101 f"
b0 e"
b1010 d"
b111 c"
b1010 b"
b1010 a"
b0 `"
b1010 _"
b11 ^"
b0 ]"
b101 \"
b11 ["
b100 Z"
b100 Y"
b1010 X"
b101 W"
b0 V"
b111 U"
b11 T"
b101 S"
b111 R"
b0 Q"
b101 P"
b101 O"
b111 N"
b0 M"
b0 L"
b1010 K"
b1010 J"
b0 I"
b0 H"
b0 G"
b0 F"
b0 E"
b0 D"
0C"
0B"
0A"
0@"
0?"
bz >"
bx ="
0<"
0;"
0:"
19"
b0 8"
b0 7"
bx 6"
bx 5"
bx 4"
bx 3"
bx 2"
11"
10"
bz /"
b0 ."
b0 -"
b0 ,"
b0 +"
b0 *"
b0 )"
b0 ("
b0 '"
b101 &"
b0 %"
b1010 $"
b111 #"
b1010 ""
b1010 !"
b0 ~
b1010 }
b11 |
b0 {
b101 z
b11 y
b100 x
b100 w
b1010 v
b101 u
b0 t
b111 s
b11 r
b101 q
b111 p
b0 o
b101 n
b101 m
b111 l
b0 k
b0 j
b1010 i
b1010 h
b0 g
b0 f
b0 e
b0 d
b0 c
b0 b
0a
0`
0_
0^
0]
bz \
bx [
0Z
0Y
0X
1W
b0 V
b0 U
bx T
bx S
bx R
bx Q
bx P
1O
1N
bz M
b0 L
1K
1J
b10 I
0H
xG
bx F
bx E
bx D
bx C
bx B
bx A
bx @
x?
x>
b0 =
bx <
x;
bx :
b1111 9
18
17
16
x5
04
03
bx 2
b1111 1
10
1/
1.
0-
1,
1+
1*
1)
1(
1'
z&
bz %
x$
bz #
bx "
bx !
$end
#1
0'
0K
0J
#101
b1000zzzzzzzz [
b0 S
bz ="
b0 5"
bz00001000zzzzzzzz Q$
b1000zzzzzzzz M
bz00001000zzzzzzzz #
bz00001000zzzzzzzz I$
0O
b0 3"
b0 Q
b0 j#
b0 *#
1]$
06
bz00001000zzzzzzzz Y$
b1101 9
b1101 T$
b1101 W$
08
b0 :
b0 P
b0 2"
b0 U$
b0 2
b0 )#
b0 i#
b0 S$
b101000 H$
1N$
1;
b10100010100010100010100010100010 @
b10100010100010100010100010100010 E
b10000000000000000000000000001000 "
b10000000000000000000000000001000 O$
b10000000000000000000000000001000 D
b10000000000000000000000000000001 A
b10000000000000000000000000000001 C
b10000000000000000000000000000001 M$
1>
0?
05
1$
1G
1H
#201
09"
0W
b0 T
b0 6"
1]$
bz00001000zzzzzzzz Y$
b1101 9
b1101 T$
b1101 W$
06
08
0$
0G
b1 _$
b1 ^$
0H
#301
1]$
bz00001000zzzzzzzz Y$
b1101 9
b1101 T$
b1101 W$
06
08
1$
1G
1H
#401
1]$
bz00001000zzzzzzzz Y$
b1101 9
b1101 T$
b1101 W$
06
08
0$
0G
b10 _$
b10 ^$
0H
#501
b1 b
b1 '"
b1 D"
b1 g"
b1 d
b1 F"
1]$
bz00001000zzzzzzzz Y$
b1101 9
b1101 T$
b1101 W$
06
08
1$
1G
1H
#601
1]$
bz00001000zzzzzzzz Y$
b1101 9
b1101 T$
b1101 W$
06
08
0$
0G
b11 _$
b11 ^$
0H
#701
1]$
bz00001000zzzzzzzz Y$
b1101 9
b1101 T$
b1101 W$
06
08
1$
1G
1H
#801
1]$
bz00001000zzzzzzzz Y$
b1101 9
b1101 T$
b1101 W$
06
08
0$
0G
b100 _$
b100 ^$
0H
#901
1]$
bz00001000zzzzzzzz Y$
b1101 9
b1101 T$
b1101 W$
06
08
1$
1G
1H
#1001
1]$
bz00001000zzzzzzzz Y$
b1101 9
b1101 T$
b1101 W$
06
08
0$
0G
b101 _$
b101 ^$
0H
#1101
1]$
bz00001000zzzzzzzz Y$
b1101 9
b1101 T$
b1101 W$
06
08
1$
1G
1H
#1201
1]$
bz00001000zzzzzzzz Y$
b1101 9
b1101 T$
b1101 W$
06
08
0$
0G
b110 _$
b110 ^$
0H
#1301
1]$
bz00001000zzzzzzzz Y$
b1101 9
b1101 T$
b1101 W$
06
08
1$
1G
1H
#1401
1]$
bz00001000zzzzzzzz Y$
b1101 9
b1101 T$
b1101 W$
06
08
0$
0G
b111 _$
b111 ^$
0H
#1501
b10 b
b10 '"
b10 D"
b10 g"
b10 d
b10 F"
1]$
bz00001000zzzzzzzz Y$
b1101 9
b1101 T$
b1101 W$
06
08
1$
1G
1H
#1601
1]$
bz00001000zzzzzzzz Y$
b1101 9
b1101 T$
b1101 W$
06
08
0$
0G
b1000 _$
b1000 ^$
0H
#1701
1]$
bz00001000zzzzzzzz Y$
b1101 9
b1101 T$
b1101 W$
06
08
1$
1G
1H
#1801
1]$
bz00001000zzzzzzzz Y$
b1101 9
b1101 T$
b1101 W$
06
08
0$
0G
b1001 _$
b1001 ^$
0H
#1901
1]$
bz00001000zzzzzzzz Y$
b1101 9
b1101 T$
b1101 W$
06
08
1$
1G
1H
#2000
0q"
b0 "#
0##
bx1 {"
bx1 z"
bz t"
1w"
#2001
1]$
bz00001000zzzzzzzz Y$
b1101 9
b1101 T$
b1101 W$
06
08
0$
0G
b1010 _$
b1010 ^$
0H
#2101
1]$
bz00001000zzzzzzzz Y$
b1101 9
b1101 T$
b1101 W$
06
08
1$
1G
1H
#2201
1]$
bz00001000zzzzzzzz Y$
b1101 9
b1101 T$
b1101 W$
06
08
0$
0G
b1011 _$
b1011 ^$
0H
#2301
1]$
bz00001000zzzzzzzz Y$
b1101 9
b1101 T$
b1101 W$
06
08
1$
1G
1H
#2401
1]$
bz00001000zzzzzzzz Y$
b1101 9
b1101 T$
b1101 W$
06
08
0$
0G
b1100 _$
b1100 ^$
0H
#2501
b11 b
b11 '"
b11 D"
b11 g"
b11 d
b11 F"
1]$
bz00001000zzzzzzzz Y$
b1101 9
b1101 T$
b1101 W$
06
08
1$
1G
1H
#2601
1]$
bz00001000zzzzzzzz Y$
b1101 9
b1101 T$
b1101 W$
06
08
0$
0G
b1101 _$
b1101 ^$
0H
#2701
1]$
bz00001000zzzzzzzz Y$
b1101 9
b1101 T$
b1101 W$
06
08
1$
1G
1H
#2801
1]$
bz00001000zzzzzzzz Y$
b1101 9
b1101 T$
b1101 W$
06
08
0$
0G
b1110 _$
b1110 ^$
0H
#2901
1]$
bz00001000zzzzzzzz Y$
b1101 9
b1101 T$
b1101 W$
06
08
1$
1G
1H
#3000
0o"
#3001
1]$
bz00001000zzzzzzzz Y$
b1101 9
b1101 T$
b1101 W$
06
08
0$
0G
b1111 _$
b1111 ^$
0H
#3101
1]$
bz00001000zzzzzzzz Y$
b1101 9
b1101 T$
b1101 W$
06
08
1$
1G
1H
#3201
1]$
bz00001000zzzzzzzz Y$
b1101 9
b1101 T$
b1101 W$
06
08
0$
0G
b10000 _$
b10000 ^$
0H
#3301
1]$
bz00001000zzzzzzzz Y$
b1101 9
b1101 T$
b1101 W$
06
08
1$
1G
1H
#3401
1]$
bz00001000zzzzzzzz Y$
b1101 9
b1101 T$
b1101 W$
06
08
0$
0G
b10001 _$
b10001 ^$
0H
#3501
b100 b
b100 '"
b100 D"
b100 g"
b100 d
b100 F"
1]$
bz00001000zzzzzzzz Y$
b1101 9
b1101 T$
b1101 W$
06
08
1$
1G
1H
#3601
1]$
bz00001000zzzzzzzz Y$
b1101 9
b1101 T$
b1101 W$
06
08
0$
0G
b10010 _$
b10010 ^$
0H
#3701
1]$
bz00001000zzzzzzzz Y$
b1101 9
b1101 T$
b1101 W$
06
08
1$
1G
1H
#3801
1]$
bz00001000zzzzzzzz Y$
b1101 9
b1101 T$
b1101 W$
06
08
0$
0G
b10011 _$
b10011 ^$
0H
#3901
1]$
bz00001000zzzzzzzz Y$
b1101 9
b1101 T$
b1101 W$
06
08
1$
1G
1H
#4000
0w"
#4001
1]$
bz00001000zzzzzzzz Y$
b1101 9
b1101 T$
b1101 W$
06
08
0$
0G
b10100 _$
b10100 ^$
0H
#6000
bx11 {"
bx11 z"
bz u"
1w"
#8000
0w"
#10000
b111 {"
b111 z"
1w"
13
#12000
0w"
#14000
0~"
1w"
#16000
0w"
#18000
1w"
#20000
0w"
03
#22000
1w"
#24000
0w"
#26000
1w"
#28000
0w"
#30000
1w"
13
#32000
0w"
#34000
1w"
#36000
0w"
#38000
1w"
#40000
0w"
03
#42000
1w"
#44000
0w"
#45211
14
#46000
1w"
#48000
0w"
#48211
0r"
0!#
b0 $#
1o"
